﻿Centro de costos,CLIENTE,Tipo,Administracion,Estado,Responsable,Created
CC-INX-219 AUTOMATIZACION HIDRO,MASECA,PROYECTO,checked,Cierre Documental,Rafael Aguirre Nolasco,18/8/2022 10:35am
CC-INX-231 SISTEMA DE REFRIGERACIÓN,SAN ANTONIO,PROYECTO,checked,Cierre Documental,NELSON OBED LARA COLORADO,15/9/2022 2:51pm
CC-INX-243 ALIM ELECTRICA TQS NUEVOS,CHOCOLATERA,PROYECTO,checked,Cierre Documental,,21/10/2022 3:02pm
CC-INX-251 COMUNICACIONES RED AS-i,CITRO PASO LARGO,PROYECTO,checked,Cierre Documental,Rafael Aguirre Nolasco,17/11/2022 1:14pm
CC-INX-253 INSTALACIÓN ELECTRICA DE EQUIPOS M5000,SAN ANTONIO,PROYECTO,checked,Cierre Documental,NELSON OBED LARA COLORADO,22/11/2022 9:58am
CC-INX-292 SUMINISTROS DE SENSORES Y PERIFRICOS ,CITRO PASO LARGO,SUMINISTRO,checked,Cierre Documental,Rafael Aguirre Nolasco,1/4/2023 2:19pm
CC-INX-01 HOTEL PLAZA SOL,WALL ARQUITECTURA,,,Cerrado,,7/8/2021 6:09pm
CC-INX-02 PLANTAS DE EMERGENCIA MAJA,MAJA CONSULTING GROUP,,,Cerrado,,7/8/2021 6:09pm
CC-INX-03 CABLE RHW MAJA,MAJA CONSULTING GROUP,,,Cerrado,,7/8/2021 6:09pm
CC-INX-04 CABLE RHW COMPLEMENTO,MAJA CONSULTING GROUP,,,Cerrado,,7/8/2021 6:09pm
CC-INX-05 PRUEBAS VLF,DISEÑE INGENIERIA/CFE LAGUNA VERDE,,,Cerrado,,7/8/2021 6:09pm
CC-INX-06 HOTEL PLAZA SOL COMPLEMENTO 1er NIVEL ,WALL ARQUITECTURA,,,Cerrado,,7/8/2021 6:09pm
CC-INX-07 SISTEMA PRESURIZADO TRANSFORMADORES ,CARGILL,PROYECTO,,Cerrado,,7/8/2021 6:09pm
CC-INX-08 CLIMAS LABORATORIO Y MICOTOXINA,CARGILL,,,Cerrado,,7/8/2021 6:09pm
CC-INX-09 MANTTO. PANELES SOLARES,CARGILL,PROYECTO,,Cerrado,,7/8/2021 6:09pm
CC-INX-10 EXTRATORES TORRES 1 Y 2 ,CARGILL,PROYECTO,,Cerrado,,7/8/2021 6:09pm
CC-INX-11 MONITORES DE SEÑALES DE TORRES 1 Y 2 ,CARGILL,PROYECTO,,Cerrado,Rafael Aguirre Nolasco,7/8/2021 6:09pm
CC-INX-12 INTERRUPTOR DE OFICINA ,CARGILL,SERVICIO,,Cerrado,Rafael Aguirre Nolasco,7/8/2021 6:09pm
CC-INX-14 MANTTO. CLIMAS ABRIL ,CARGILL,SERVICIO,,Cerrado,,7/8/2021 6:09pm
CC-INX-15 SERVICIO BANCO DE CAPACITORES ,CARGILL,SERVICIO,,Cerrado,,7/8/2021 6:09pm
CC-INX-17 TABLETAS,CARGILL,SUMINISTRO,,Cerrado,,7/8/2021 6:09pm
CC-INX-18 UPS SMART APC,CARGILL,SUMINISTRO,,Cerrado,,7/8/2021 6:09pm
CC-INX-19 SISTEMA DE ILUMINACION VIAS ,CARGILL,PROYECTO,,Cerrado,Rodolfo Tiburcio,7/8/2021 6:09pm
CC-INX-20 MASECA,MASECA,,,Cerrado,,7/8/2021 6:09pm
CC-INX-21 STEPAN,STEPAN,PROYECTO,,Cerrado,,7/8/2021 6:09pm
CC-INX-22 RELEVADORES,CARGILL,SUMINISTRO,,Cerrado,,7/8/2021 6:09pm
CC-INX-23 RECTIFICADOR VAC A VCD,CARGILL,,,,,7/8/2021 6:09pm
CC-INX-24 DIAGNOSTICO REPORTES DREAM REPORT ,,SERVICIO,,Cerrado,,7/8/2021 6:09pm
CC-INX-25 VERIFICACION BASE DATOS MS SQL,,SERVICIO,,Cerrado,,7/8/2021 6:09pm
CC-INX-28 MEDICION DE SISTEMA TIERRA TORRES ,,,,,,7/8/2021 6:09pm
"CC-INX-29 PUNTOS DE ACCESO BANDA 1, TORRE MOVIL 1 Y 2 ",CARGILL,SERVICIO,,Cerrado,,7/8/2021 6:09pm
CC-INX-30 CONTACTOR DE POTENCIA ,CARGILL,SUMINISTRO,,Cerrado,,7/8/2021 6:09pm
CC-INX-31 RENTA DE ANDAMIOS ,CARGILL,SERVICIO,,Cerrado,,7/9/2021 6:09pm
CC-INX-32 RESPALDO BASE DE DATOS ,CARGILL,SERVICIO,,Cerrado,,7/8/2021 6:09pm
CC-INX-33 SERVICIOS VARIOS EJECUTADOS ,CARGILL,SERVICIO,,Cerrado,,7/8/2021 6:09pm
CC-INX-34 BATERIAS ACIDO PLOMO ,CARGILL,SUMINISTRO,,Cerrado,,7/8/2021 6:09pm
CC-INX-35 BATERIA ACIDO PLOMO FALTANTE ,CARGILL,SUMINISTRO,,Cerrado,,7/8/2021 6:09pm
CC-INX-36 INTERRUPTORES 150-200 A,CARGILL,SUMINISTRO,,Cerrado,,7/8/2021 6:09pm
CC-INX-37 MANTENIMIENTO VIGAS PUNTO DE CARGA ,CARGILL,SERVICIO,,Cerrado,,7/8/2021 6:09pm
CC-INX-38 TORRE ANDAMIOS CARGILL ,CARGILL,SERVICIO,,Cerrado,,7/8/2021 6:09pm
CC-INX-39 MANTT CLIMAS OCTUBRE ,CARGILL,SERVICIO,,Cerrado,,7/8/2021 6:09pm
CC-INX-40 CLIMA SALA DE JUNTAS ,CARGILL,SERVICIO,,Cerrado,,7/8/2021 6:09pm
CC-INX-41 GUARDAS PARA GALERIA ,CARGILL,SERVICIO,,Cerrado,,7/8/2021 6:09pm
CC-INX-43 CLIMAS COMEDOR ,CARGILL,SERVICIO,,Cerrado,,7/8/2021 6:09pm
"CC-INX-44 SERVICIOS VARIOS EJECUTADOS CIMPLICITY, ANTENAS Y BATERIAS ",CARGILL,SERVICIO,,Cerrado,,7/8/2021 6:09pm
CC-INX-45 BARANDALES PARA TOLVA ,CARGILL,SERVICIO,,Cerrado,,7/8/2021 6:09pm
CC-INX-46 SERVICIO DE PINTADO LABORATORIO MICOTOXINAS,CARGILL,SERVICIO,,Cerrado,,7/8/2021 6:09pm
CC-INX-47 TRABAJOS ADICIONALES TOLVAS ,CARGILL,SERVICIO,,Cerrado,,7/8/2021 6:09pm
CC-INX-49 ARRANCADORES Y TRANSFORMADORES ,CARGILL,SUMINISTRO,,Cerrado,,7/8/2021 6:09pm
CC-INX-50 LAMPARAS LABORATORIO MICOTOXINAS ,CARGILL,SUMINISTRO,,Cerrado,,7/8/2021 6:09pm
CC-INX-52 SENSORES CAPACITIVOS ,CARGILL,SUMINISTRO,,Cerrado,,7/8/2021 6:09pm
CC-INX-53 BASTIDORES METALICOS EDIFICIO NIVELES ,CARGILL,SERVICIO,,Cerrado,,7/8/2021 6:09pm
CC-INX-54 TUBERIA DE COBRE AIRE DE SERVICIOS ,CARGILL,SERVICIO,,Cerrado,,7/8/2021 6:09pm
CC-INX-55 BARANDAL NIVEL 3 TORRE ELEVADORES ,CARGILL,SERVICIO,,Cerrado,,7/8/2021 6:09pm
CC-INX-56 INTEGRACION SEÑALES BANCO DE BATERIAS,CARGILL,SERVICIO,,Cerrado,,7/8/2021 6:09pm
CC-INX-58 MANTENIMIENTO CLIMAS FEBRERO 2021 ,CARGILL,SERVICIO,,Cerrado,,7/8/2021 6:09pm
CC-INX-59 TUBERIA DE COBRE DE PULMON A DRAGA 9,CARGILL,SERVICIO,,Cerrado,,7/8/2021 6:09pm
CC-INX-60 TUBERIA DE COBRE CARGA 13 A BASCULA,CARGILL,SERVICIO,,Cerrado,,7/8/2021 6:09pm
CC-INX-61 TRES BASTIDORES METALICOS EDIFICIO NIVELES ,CARGILL,SERVICIO,,Cerrado,,7/8/2021 6:09pm
CC-INX-62 REHABILITACION ALUMBRADO SOLAR ,CARGILL,PROYECTO,,Cerrado,,7/8/2021 6:09pm
CC-INX-63 SENSORES TURCK ,CARGILL,SUMINISTRO,,Cerrado,,7/8/2021 6:09pm
CC-INX-64 SRVICIOS VARIOS EJECUTADOS ,CARGILL,SERVICIO,,Cerrado,,7/8/2021 6:09pm
CC-INX-65 TUBERIA ALIMENTADOR 44VAC (1 ra PARTE CABLE),CARGILL,PROYECTO,checked,Cerrado,,7/8/2021 6:09pm
CC-INX-66 FUENTES ALIMENTACION PLC E10-E11,CARGILL,SERVICIO,,Cerrado,,7/8/2021 6:09pm
CC-INX-68 CONTROL ARRANQUE COMPRESOR ,CARGILL,SERVICIO,,Cerrado,,7/8/2021 6:09pm
CC-INX-72 Modificacion Pantalla de Carga,CARGILL,SERVICIO,,Cerrado,,7/8/2021 6:09pm
CC-INX-73 Anemometros Maseca,MASECA,PROYECTO,checked,Cerrado,Rodolfo Tiburcio,7/8/2021 6:09pm
CC-INX-75 Actualizacion Pasteurizadora,CITRU ALAMO,SERVICIO,,Cerrado,Rodolfo Tiburcio,7/8/2021 6:09pm
CC-INX-76 Cargador de Baterias para Almeja,CARGILL,SUMINISTRO,,Cerrado,,7/8/2021 6:09pm
CC-INX-79 SERVICIOS DE CALIBRACION  ,SSA,SERVICIO,,Cerrado,,7/8/2021 6:09pm
CC-INX-82 CHOCOLATERA,CHOCOLATERA,PROYECTO,,Cerrado,,7/8/2021 6:09pm
CC-INX-83 Servicios Confirguracion-Programacion y Sensores PT-100,CARGILL,SERVICIO,,Cerrado,Rodolfo Tiburcio,7/8/2021 6:09pm
CC-INX-84 SERVICIO MAQUINA DE ANIMALITOS ,CUETARA,SERVICIO,,Cerrado,Rodolfo Tiburcio,7/8/2021 6:09pm
CC-INX-85 MANTENIMIENTO PREVENTIVO A CLIMAS,CARGILL,SERVICIO,,Cerrado,,7/8/2021 6:09pm
CC-INX-86 Renta Planta de Emergencia,CARGILL,SERVICIO,,Cerrado,,12/8/2021 12:37pm
CC-INX-88 Mantenimiento preventivo a almeja,CARGILL,SERVICIO,,Cerrado,,9/8/2021 10:19am
"CC-INX-94 SERVICIO DE MANTENIMIENTO A TOLVA DE MUELLE INCLUYE SUMINISTRO DE  MATERIALES, COSUMIBLES Y MANO DE OBRA POR EJECUCION DE MANTENIMIENTO.",CARGILL,SERVICIO,,Cerrado,,23/8/2021 10:38am
CC-INX-97 REHABILITADO DE SISTEMA DE ALUMBRADO CON PANEL SOLAR DE BANDA 5,CARGILL,PROYECTO,,Cerrado,,7/9/2021 10:09am
CC-INX-98 SENSOR DE TEMPRERATURA ,RJJ,SUMINISTRO,,Cerrado,,7/9/2021 4:16pm
CC-INX-99 CABLE ,MASECA,SUMINISTRO,,Cerrado,,7/9/2021 5:36pm
CC-INX-100 TRASMISOR DE PRESION ,SSA,SUMINISTRO,,Cerrado,,9/9/2021 10:49am
CC-INX-101 PROGRAMA DE MANTENIMIENTO PREVENTIVO DEL SISTEMA DE LAVADO ,SSA,SERVICIO,,Cerrado,,9/9/2021 10:53am
CC-INX-102-AEI BLOQUES DE DISTRIBUCION ,CARGILL,SUMINISTRO,,Cerrado,,13/9/2021 6:34pm
CC-INX-105 ELECTROVALVULA ,RJJ,SUMINISTRO,,Cerrado,,24/9/2021 3:03pm
CC-INX-106 FRIGORIFICO DE LA CUENCA DEL PAPALOAPAN ,FRIGORIFICO DE LA CUENCA DEL PAPALOAPAN ,SUMINISTRO,,Cerrado,,24/9/2021 4:51pm
CC-INX-107 Instalación de filtros y manómetros en sistema de lavado PTON-AGC,SSA,SUMINISTRO,,Cerrado,,27/9/2021 5:51pm
CC-INX-108 ARRANCADORES SUAVES 3RW4435-6BC34,CARGILL,SUMINISTRO,,Cerrado,,28/9/2021 12:17pm
CC-INX-109 CONALEP ,CONALEP,SUMINISTRO,,Cerrado,,30/9/2021 5:58pm
CC-INX-111 MATERIAL ,RJJ,SUMINISTRO,,Cerrado,,6/10/2021 9:18am
CC-INX-112 MANOMETROS ,SSA,SUMINISTRO,,Cerrado,,6/10/2021 10:59am
CC-INX-113 VARIADOR DE FRECUENCIA ,RJJ,SUMINISTRO,,Cerrado,,7/10/2021 6:49pm
CC-INX-117 SERVICIO DE CORRECCION EN LA  LOGICA EN LA TRANSPORTADORA  ENVAFLEX,CUETARA,SERVICIO,,Cerrado,Rodolfo Tiburcio,16/10/2021 2:02pm
CC-INX-118 SENSOR INDUCTIVO,CARGILL,SUMINISTRO,,Cerrado,,18/10/2021 5:16pm
CC-INX-121 ARRANCADORES SUAVES 300HP Y 250HP,MASECA,PROYECTO,checked,Cerrado,Rodolfo Tiburcio,26/10/2021 8:51pm
"CC-INX-123 CABLE BLINDADO, MANGUERA Y CONECTORES",MASECA,SUMINISTRO,,Cerrado,,26/10/2021 8:57pm
CC-INX-124 TUBERIA COBRE AIRE SERVICIOS VIAS,CARGILL,PROYECTO,,Cerrado,,26/10/2021 9:00pm
"CC-INX-125 SERV IZAJE, ENSAMBLE Y PRUEBAS DE BINWHIP",CARGILL,PROYECTO,,Cerrado,,26/10/2021 9:02pm
CC-INX-126 REFACCIONAMIENTO SIEMENS,CARGILL,SUMINISTRO,,Cerrado,,28/10/2021 10:42am
"CC-INX-127 RTD, CONTROLADOR,VARIADOR,FLUJOMETRO",CITRUSPER ,SUMINISTRO,,Cerrado,,29/10/2021 10:01am
CC-INX-128 CONALEP SEGUNDO PAQUETE,CONALEP,SUMINISTRO,,Cerrado,,2/11/2021 1:44pm
CC-INX-129 TABLERO 1200A,CONALEP,FABRICACION,,Cerrado,,3/11/2021 11:03am
CC-INX-130 REFUERZO PUENTE BC-04 LADO IZQUIERDO INFERIOR,CARGILL,PROYECTO,,Cerrado,,25/11/2021 7:27pm
CC-INX-132 MATERIALES RME-283 Y RME-284,CITRUSPER ,SUMINISTRO,,Cerrado,,4/12/2021 10:14am
CC-INX-133 MATERIAL ELECTRICO PURGAS,CITRUSPER ,SUMINISTRO,,Cerrado,,4/12/2021 10:17am
CC-INX-134 CITROFRUT DESPULPADORA,CITRU ALAMO,SUMINISTRO,,Cerrado,,7/12/2021 11:45am
CC-INX-135 EXTRACTORES LABORATORIO MICOTOXINAS,CARGILL,SERVICIO,,Cerrado,,7/12/2021 3:21pm
CC-INX-136 TRANSMISORES DANFOSS,CITRU ALAMO,SUMINISTRO,,Cerrado,,9/12/2021 4:10pm
"CC-INX-137 RETIRO, COLOCACION DE TUBERIA, CHAROLA Y CABLEADO BANDA 4",CARGILL,PROYECTO,checked,Cerrado,Rafael Aguirre Nolasco,16/12/2021 4:22pm
CC-INX-138 ACTUALIZACION ARCO DE LAVADO 2,SSA,PROYECTO,,Cerrado,Rodolfo Tiburcio,16/12/2021 4:33pm
CC-INX-139 DETECTORES DE HUMO CHEDRAUI,CHEDRAUI,PROYECTO,,Cerrado,,17/12/2021 11:47am
CC-INX-140 PAROS DE EMERGENCIA,CARGILL,SERVICIO,,Cerrado,Rodolfo Tiburcio,20/12/2021 5:10pm
CC-INX-141 CABLE Y CLAVIJA PARA WALINGA,CARGILL,SUMINISTRO,,Cerrado,,29/12/2021 11:36am
CC-INX-142 ARRANCADOR SUAVE,CITRUSPER ,SUMINISTRO,,Cerrado,,29/12/2021 1:42pm
CC-INX-143 CONVERTIDOR DE MEDIOS,CITRU ALAMO,SUMINISTRO,,Cerrado,,29/12/2021 1:45pm
CC-INX-144 CENTRO MODULAR DE MEDICION,JUAN GARCIA SANCHEZ,SUMINISTRO,,Cerrado,,29/12/2021 1:53pm
CC-INX-145 PLANOS DE PROCESO,CARGILL,PROYECTO,,Cerrado,,3/1/2022 6:58pm
CC-INX-146 SERV.  TUBERIA-CABLEADO BASCULA CAMIONERA,CARGILL,PROYECTO,,Cerrado,Rafael Aguirre Nolasco,5/1/2022 1:15pm
CC-INX-147 CALIBRACION DE INSTRUMENTOS EN PARADA,NATURGY FUERZA Y ENERGIA DE TUXPAN,SERVICIO,,Cerrado,,7/1/2022 10:36am
"CC-INX-148 REMOTO AD, VISUALIZACION BASC, INT DELTA P",CARGILL,SERVICIO,checked,Cerrado,Rodolfo Tiburcio,8/1/2022 2:03pm
"CC-INX-149 VFD,GAB,TUBOS LED,VENTILADOR",CITRUSPER ,SUMINISTRO,,Cerrado,,17/1/2022 12:32pm
CC-INX-150 PLC CENTRIFUGA DESPULPADORA,RJJ,PROYECTO,,Cerrado,,24/1/2022 6:33pm
CC-INX-151 CHAROLA SISTEMA LICOR,CHOCOLATERA,PROYECTO,,Cerrado,,24/1/2022 6:38pm
CC-INX-152 CONEXIÓN INALÁMBRICA A GRÚAS,EXTRUCCIONES METALICAS ,PROYECTO,,Cerrado,,8/2/2022 8:58pm
CC-INX-153 MAQUINA DE GOTEO,CHOCOLATERA,PROYECTO,,Cerrado,,11/2/2022 9:53am
CC-INX-154 SERVICIOS DE PROGRAMACION,EXTRUCCIONES METALICAS ,SERVICIO,,Cerrado,,11/2/2022 10:29am
"CC-INX-155 TUBERIA, ACCESORIOS, CABLE Y VARIADOR",CITRUSPER ,SUMINISTRO,,Cerrado,,11/2/2022 10:32am
CC-INX-156 ARGOLLAS TAPAS BASCULAS,CARGILL,PROYECTO,,Cerrado,,11/2/2022 12:06pm
CC-INX-157 ALIMENTACIÓN HVAC Y BOMBA,CHOCOLATERA,PROYECTO,,Cerrado,,12/2/2022 1:24pm
CC-INX-158 MANTTO A MACROPOSTES,ICAVE,PROYECTO,,Cerrado,,12/2/2022 1:28pm
CC-INX-159 CLIMAS PRIMER CUATRIMESTRE,CARGILL,PROYECTO,,Cerrado,,12/2/2022 1:31pm
CC-INX-160 VARIADOR POWERFLEX 40,EXTRUCCIONES METALICAS ,SUMINISTRO,,Cerrado,,15/2/2022 7:23pm
"CC-INX-161 MODULO CONTADOR, ENCODER Y VARIADORES",EXTRUCCIONES METALICAS ,SUMINISTRO,,Cerrado,,15/2/2022 7:45pm
CC-INX-162 REFLECTORES LED 200W,CARGILL,SUMINISTRO,,Cerrado,,4/3/2022 1:09pm
"CC-INX-163 LICENCIA, CPU Y SERVICIO",CITRU ALAMO,SERVICIO,,Cerrado,,4/3/2022 1:12pm
CC-INX-164 VENTANALES Y BARANDALES TORRE DE BODEGA,CARGILL,PROYECTO,,Cerrado,,7/3/2022 9:19am
CC-INX-165 DIAGNOSTICO E IDENTIFICACION DE FALLA,PREACERO PELLIZZARI,SERVICIO,,Cerrado,,8/3/2022 12:26pm
CC-INX-166 SUMINISTRO E INSTALACION TARJETA INTERFACE,PREACERO PELLIZZARI,SERVICIO,,Cerrado,,8/3/2022 12:27pm
CC-INX-167 MODULOS ANALOGICOS,EXTRUCCIONES METALICAS ,SUMINISTRO,,Cerrado,,11/3/2022 9:56am
CC-INX-168 CABLE ADAPTADOR PC-USB,EXTRUCCIONES METALICAS ,SUMINISTRO,,Cerrado,,11/3/2022 9:57am
CC-INX-169 FUSIBLES CARGILL,CARGILL,SUMINISTRO,,Cerrado,,17/3/2022 6:34pm
CC-INX-170 Climas Nuevos R410 ,CARGILL,SERVICIO,,Cerrado,,22/3/2022 4:30pm
CC-INX-171 CARTUCHO FILTROS,SSA,SUMINISTRO,,Cerrado,,23/3/2022 6:02pm
CC-INX-172 MANTENIMIENTO A INSTALACION ELECTRICA DEPOSITO DE PILETAS,SAN ANTONIO,PROYECTO,,Cerrado,,24/3/2022 9:05am
CC-INX-174 OPTICAL LINK MODULE,AB MAURI,SUMINISTRO,,Cerrado,,13/4/2022 11:34am
CC-INX-176 MANTTO. ALMEJA MUELLE,CARGILL,SERVICIO,,Cerrado,,13/4/2022 12:42pm
CC-INX-177 SITE TRAFFIC,CARGILL,PROYECTO,,Cerrado,,22/4/2022 9:53am
CC-INX-178 ARMADO CAJONES Y MANTTO FONDOS,CARGILL,SERVICIO,,Cerrado,,22/4/2022 9:55am
CC-INX-179 LLENADO TANQUES SELMI.CHOLACA,CHOCOLATERA,PROYECTO,checked,Cerrado,Rafael Aguirre Nolasco,22/4/2022 10:47am
CC-INX-180 PNOZ PILZ,AB MAURI,SUMINISTRO,,Cerrado,,26/4/2022 5:33pm
CC-INX-181 MODULO ENLACE OPT RESTANTES,AB MAURI,SUMINISTRO,,Cerrado,,26/4/2022 5:33pm
CC-INX-182 MANTTO. ALMEJA MUELLE y RESORTES,CARGILL,SERVICIO,,Cerrado,,26/4/2022 6:21pm
CC-INX-183 MATERIAL PARA TALLERES,CONALEP,SUMINISTRO,,Cerrado,,2/5/2022 6:58pm
CC-INX-184 SERVICIO CORRECTIVO PLC MACERACION,MASECA,SERVICIO,,Cerrado,,3/5/2022 9:50am
CC-INX-185 ACTUALIZACION LICENCIA,CARGILL,SUMINISTRO,checked,Cerrado,Rodolfo Tiburcio,9/5/2022 6:08pm
CC-INX-186 RETIRO TUBERIA OBSOLETA COLECTORES POLVO,CARGILL,SERVICIO,,Cerrado,,12/5/2022 11:28am
CC-INX-188 MARCOS DE ANGULO PARA BANDAS,CARGILL,PROYECTO,,Cerrado,,13/5/2022 12:32pm
CC-INX-189 RETROFIT FRESADORA,CONALEP,SERVICIO,,Cerrado,,12/5/2022 11:34am
CC-INX-190 ALIMENTO PARA MOLINO DUYVIS,CHOCOLATERA,PROYECTO,checked,Cerrado,Rafael Aguirre Nolasco,16/5/2022 5:35pm
CC-INX-191 VENTILADOR EBMPAPST,CITRU ALAMO,PROYECTO,,Cerrado,,16/5/2022 6:58pm
CC-INX-192 TRANSFORMADOR INVERSOR,CARGILL,PROYECTO,,Cerrado,,19/5/2022 10:38am
CC-INX-193 GABINETE A PRUEBA DE POLVO Y HUMEDAD,CITRUSPER ,PROYECTO,,Cerrado,,19/5/2022 1:38pm
CC-INX-194 SUPRESION DE INCENDIO PARA CAMPANA,CHEDRAUI,PROYECTO,,Cerrado,,19/5/2022 6:39pm
CC-INX-195 MIGRACION PANELES,CHOCOLATERA,PROYECTO,,Cerrado,,26/5/2022 12:42pm
CC-INX-196 FILTROS PARA TORRES,CARGILL,PROYECTO,,Cerrado,,3/6/2022 2:06pm
CC-INX-197 SIMATIC HMI,CHOCOLATERA,SUMINISTRO,,Cerrado,,6/6/2022 6:43pm
CC-INX-198 RADIOS PORTATILES,CARGILL,SUMINISTRO,,Cerrado,,16/6/2022 1:08pm
CC-INX-199 RADIOS Y TRANSMISORES DE TORRES DE MUELLE,CARGILL,SUMINISTRO,,Cerrado,,16/6/2022 2:32pm
CC-INX-200 LIMPIEZA DE TORRES MOVILES 1 Y 2,CARGILL,PROYECTO,checked,Cerrado,,23/6/2022 12:57pm
CC-INX-201 ALIMENTACION ELECTRICA HELICOIDAL,CHOCOLATERA,PROYECTO,checked,Cerrado,Rafael Aguirre Nolasco,25/6/2022 12:49pm
CC-INX-202 MODULO DE COMUNICACIÓN,JRS,PROYECTO,,Cerrado,,30/6/2022 11:40pm
CC-INX-204 CHAROLA GRANILLO,CHOCOLATERA,PROYECTO,,Cerrado,,6/7/2022 2:36pm
CC-INX-205 VARIADOR ALLEN BRADLEY,EXTRUCCIONES METALICAS ,SUMINISTRO,,Cerrado,,12/7/2022 3:28pm
CC-INX-206 TUBERIA DE LA BC-05,CARGILL,SERVICIO,,Cerrado,,13/7/2022 1:32pm
CC-INX-208 DESARROLLO DE INGENIERÍA MECANICA PARA LOS PROYECTOS EN PLANTA CLARIANT MÉXICO,BALPER INSTALACIONES,SERVICIO,,Cerrado,,13/7/2022 9:24pm
CC-INX-209 EXTENSIÓN DE ELECTROVÁLVULAS,CHOCOLATERA,PROYECTO,,Cerrado,,18/7/2022 5:28pm
CC-INX-210 MATERIAL PARA PLANTELES CAST,CONALEP,SUMINISTRO,,Cerrado,,20/7/2022 5:29pm
CC-INX-211 KIT PARA VALVULA ,CITRU ALAMO,PROYECTO,,Cerrado,,23/7/2022 1:32pm
CC-INX-212 ESCALERA TAB 3_BASCULA 1,CARGILL,PROYECTO,,Cerrado,,25/7/2022 1:03pm
CC-INX-213 MODULOS DIGITALES,JBT DE MÉXICO,SUMINISTRO,,Cerrado,,9/8/2022 1:14pm
"CC-INX-214 SEMAFORO LED 8""",CARGILL,SUMINISTRO,,Cerrado,,10/8/2022 4:09pm
CC-INX-215 CALIBRACION DE EQUIPOS FLUKE,SSA,SERVICIO,checked,Cerrado,,11/8/2022 5:35pm
CC-INX-216 Servicio de ingeniería para identificación de iluminación,CARGILL,SERVICIO,checked,Cerrado,NELSON OBED LARA COLORADO,11/8/2022 6:16pm
CC-INX-217 CONTROL DE LUCES DE SEMAFORO SITE TRAFFIC,CARGILL,SERVICIO,,Cerrado,,12/8/2022 3:36pm
CC-INX-218 MANTTO PREVENTIVO AA,CARGILL,SERVICIO,,Cerrado,,13/8/2022 12:43pm
CC-INX-220 INST DE PANTALLA PASTEURIZADOR,CITRU ALAMO,PROYECTO,,Cerrado,,18/8/2022 10:44am
CC-INX-221 SIEMENS CONTACTO AUX,EXTRUCCIONES METALICAS ,SERVICIO,,Cerrado,,19/8/2022 1:18pm
CC-INX-222 INVERSOR DRIVE 4.0KW,CHOCOLATERA,SUMINISTRO,,Cerrado,,27/8/2022 2:05pm
CC-INX-223 INTEGRACION NUEVO MOLINO,CHOCOLATERA,PROYECTO,checked,Cerrado,,1/9/2022 12:59pm
CC-INX-224 INST SISTEMA ALARMA GJA JAMAPA 1 Y 2,SAN ANTONIO,PROYECTO,,Cerrado,,2/9/2022 10:03am
CC-INX-225 NVR EN AREA DE BASCULA,CARGILL,SUMINISTRO,,Cerrado,Rodolfo Tiburcio,5/9/2022 6:10pm
CC-INX-229 SCALPER,CITRO PASO LARGO,PROYECTO,checked,Cerrado,Rafael Aguirre Nolasco,10/9/2022 2:11pm
CC-INX-230 BARTH 2,CHOCOLATERA,PROYECTO,,Cerrado,,10/9/2022 2:13pm
CC-INX-232 VARIADOR DE VELOCIDAD VEIGKON,CITRO PASO LARGO,SUMINISTRO,checked,Cerrado,Rafael Aguirre Nolasco,26/9/2022 12:42pm
CC-INX-233 SIMATIC HMI KTP700,CHOCOLATERA,SUMINISTRO,,Cerrado,,26/9/2022 5:20pm
CC-INX-235 INST NODO DE RED BASC CAMIONERA TALLER,CARGILL,PROYECTO,,Cerrado,,30/9/2022 8:31pm
CC-INX-236 MANTTO GRAL A CASETA 2,CARGILL,PROYECTO,checked,Cerrado,,30/9/2022 9:11pm
CC-INX-237 CLAMP ON,PEMEX,PROYECTO,checked,Cerrado,,7/10/2022 4:36pm
CC-INX-238 AEI NO BREAK APC,CARGILL,SUMINISTRO,checked,Cerrado,,14/10/2022 4:02pm
CC-INX-239 TRANSDUCTOR DE CORRIENTE ,CITRUSPER ,SUMINISTRO,checked,Cerrado,,17/10/2022 10:40am
CC-INX-240 CONECTORES HEMBRA DE DOS PUERTOS,CARGILL,SUMINISTRO,checked,Cerrado,,17/10/2022 11:38am
CC-INX-241 LUMINARIO TIPO CAMPANA DE LED,CITRUSPER ,SUMINISTRO,checked,Cerrado,,17/10/2022 11:28am
CC-INX-242 HERRAMIENTAS TRUPER,CITRUSPER ,SUMINISTRO,checked,Cerrado,,17/10/2022 12:24pm
CC-INX-244 INSTALACIÓN ELECTRICA DE BBAS,CITRU ALAMO,PROYECTO,,Cerrado,,21/10/2022 4:45pm
CC-INX-245 AEI NO BREAK APC SMT750C LINEA,CARGILL,SUMINISTRO,checked,Cerrado,,21/10/2022 6:18pm
CC-INX-246 TRANSFORMADOR TIPO SUBESTACIÓN,SAN ANTONIO,PROYECTO,checked,Cerrado,Rafael Aguirre Nolasco,27/10/2022 10:21am
CC-INX-247 SEMAFORO EN VIAS,CARGILL,PROYECTO,,Cerrado,,16/2/2023 9:24am
CC-INX-122 SIMATIC HMI KTP400,AB MAURI,SUMINISTRO,checked,Cerrado,,4/11/2022 5:17pm
CC-INX-248 INST GENERADOR TRANSFE-ALIM BT TINAJAS 2,SAN ANTONIO,PROYECTO,,Cerrado,,15/11/2022 11:34am
CC-INX-249 HERRAMIENTA WIHA TOOLS,PEMEX,SUMINISTRO,checked,Cerrado,,16/11/2022 10:51am
CC-INX-250 CONVERTIDOR SERIAL SCADA,PEMEX,SUMINISTRO,checked,Cerrado,,16/11/2022 10:52am
CC-INX-252 MANTENIMIENTO DE TABLEROS B4,NATURGY FUERZA Y ENERGIA DE TUXPAN,,,Cerrado,,18/11/2022 6:08pm
CC-INX-254 DRIVE PN,CITRU ALAMO,SUMINISTRO,checked,Cerrado,,23/11/2022 1:28pm
CC-INX-255 MINI SPLIT MIRAGE,CARGILL,SUMINISTRO,,Cerrado,,6/12/2022 9:10am
CC-INX-256 RFI UNIT,CITRU ALAMO,SUMINISTRO,checked,Cerrado,,6/12/2022 9:48am
CC-INX-257 SERVICIO PREV AIRES ACOND,CARGILL,SERVICIO,,Cerrado,Rafael Aguirre Nolasco,6/12/2022 11:08am
CC-INX-258 SERVICIO DE MANTENIMIENTO AIRES ACOND,CARGILL,SERVICIO,,Cerrado,Rafael Aguirre Nolasco,6/12/2022 11:13am
CC-INX-259 INSTALACION PUERTA Y VENTANAL,CARGILL,SUMINISTRO,checked,Cerrado,,6/12/2022 11:21am
CC-INX-260 RECORTE DE CERCA DE MALLA,CARGILL,SERVICIO,,Cerrado,,6/12/2022 11:25am
CC-INX-261 ACONDICIONAM DE INSTALACIONES DEL SITE,CARGILL,SERVICIO,,Cerrado,,6/12/2022 11:30am
CC-INX-262 TRANSFORMADOR TLALIXCOYAN,SAN ANTONIO,PROYECTO,,Cerrado,,16/12/2022 11:49am
CC-INX-263 HAL,Swivel energy,PROYECTO,checked,Cerrado,Rafael Aguirre Nolasco,16/12/2022 2:23pm
CC-INX-264 PROCIMART,PROCIMART,PROYECTO,checked,Cerrado,,26/12/2022 10:16am
CC-INX-265 PROFIBUS,SAN ANTONIO,SUMINISTRO,checked,Cerrado,,27/12/2022 9:52am
CC-INX-268 ARRANCADOR SUAVE ,SAN ANTONIO,SUMINISTRO,checked,Cerrado,,20/1/2023 12:02pm
CC-INX-269 SLIJET CONGELANTES,CARGILL,SUMINISTRO,,Cerrado,,20/1/2023 1:40pm
CC-INX-270 CAMBIO DE RED PROFIBUS A PROFINET,CITRO PASO LARGO,PROYECTO,checked,Cerrado,Rafael Aguirre Nolasco,27/1/2023 9:40am
CC-INX-271- TARJETA ABB,CITRO PASO LARGO,PROYECTO,checked,Cerrado,Rafael Aguirre Nolasco,1/2/2023 12:09pm
CC-INX-272 INSTALACION DE PUERTAS Y VENTANAS MAXIMO,CARGILL,PROYECTO,checked,Cerrado,,9/2/2023 1:42pm
CC-INX-274 SEMAFORO EN VIAS,CARGILL,PROYECTO,,Cerrado,,16/2/2023 9:30am
CC-INX-275 INSTALACION DE CELDAS DE CARGA A TQUE EN AREA DE GOTEO,CHOCOLATERA,PROYECTO,checked,Cerrado,,17/2/2023 6:38pm
CC-INX-276 FABRICACION E INSTALACION PUERTA DE MAXIMO,CARGILL,FABRICACION,checked,Cerrado,,22/2/2023 9:56am
CC-INX-278 FABRICACION E INSTALACION  DE PUERTAS BATIENTES AJUSTABLE,CARGILL,FABRICACION,checked,Cerrado,Rafael Aguirre Nolasco,27/2/2023 2:32pm
CC-INX-280 FABRICACION PUERTA DE OFICINA,CARGILL,FABRICACION,checked,Cerrado,,10/3/2023 4:32pm
CC-INX-281 REPARACION BOMBA GOULDS 50 HP,SSA,SERVICIO,checked,Cerrado,Rafael Aguirre Nolasco,10/3/2023 10:50am
CC-INX-283 Variador Frecuencia 20 HP (440VoltsAC) ,CITRO PASO LARGO,SUMINISTRO,checked,Cerrado,Rafael Aguirre Nolasco,10/3/2023 6:11pm
CC-INX-284 FABRICACION DE DEPOSITO TAPAS FORMA CORAZON,CARGILL,FABRICACION,checked,Cerrado,,17/3/2023 12:20pm
"CC-INX-285 BOMBA CENTRIFUGA HORIZONTAL 7,5 HP ACERO INOX",SSA,SUMINISTRO,checked,Cerrado,Rafael Aguirre Nolasco,17/3/2023 4:05pm
CC-INX-287 DIAGNOSTICO Y NOTIFICACION BANCO DE BATERIAS,CARGILL,SERVICIO,checked,Cerrado,Rafael Aguirre Nolasco,30/3/2023 1:37pm
CC-INX-291 SERVICIOS DE ALINEACIÓN DE EJES,SHAW BREDERO,SERVICIO,checked,Cerrado,Rafael Aguirre Nolasco,1/4/2023 1:46pm
CC-INX-293 COLOCACION DE CADENA TUNEL ,CARGILL,FABRICACION,checked,Cerrado,Rafael Aguirre Nolasco,10/4/2023 3:53pm
CC-INX-294 POSTES Y CADENA DE TUNEL A DIESEL,CARGILL,FABRICACION,checked,Cerrado,Rafael Aguirre Nolasco,10/4/2023 3:54pm
CC-INX-296 SISTEMA DE ALARMA 12 CASETAS BAYO,SAN ANTONIO,PROYECTO,checked,Cerrado,Rafael Aguirre Nolasco,26/4/2023 12:12pm
CC-INX-297 CAP PUPITRES ESTRUCTURA,CARGILL,SUMINISTRO,checked,Cerrado,Nohemi Bautista Perez,27/4/2023 11:25am
CC-INX-300 COM ESTUFA DE 2 QUEMADORES,CARGILL,SUMINISTRO,checked,Cerrado,Nohemi Bautista Perez,4/5/2023 1:05pm
CC-INX-301 POSTE DE CASETA A DIESEL ,CARGILL,PROYECTO,checked,Cerrado,Rafael Aguirre Nolasco,5/5/2023 11:46am
CC-INX-302 VENTILADOR TIPO PISO ,BREDERO SHAW,SUMINISTRO,checked,Cerrado,Rafael Aguirre Nolasco,10/5/2023 5:53pm
CC-INX-304 SUMINISTRO DE MINISPLIT Y BASES DE PARED,CARGILL,SUMINISTRO,checked,Cerrado,Nohemi Bautista Perez,11/5/2023 12:55pm
CC-INX-305 HALL HORIZON LIBRANZA MTTO TRANSFORMADOR,Swivel energy,SERVICIO,checked,Cerrado,Rafael Aguirre Nolasco,12/5/2023 3:45pm
CC-INX-308 CANALIZACION DE CASETA DE RESIDUOS PELIGROSO,CARGILL,PROYECTO,checked,Cerrado,Rafael Aguirre Nolasco,24/5/2023 3:51pm
CC-INX-311 SUMINISTRO DE CABLE PARA SINAMICS,FRIGORIFICO DE LA CUENCA DEL PAPALOAPAN ,SUMINISTRO,checked,Cerrado,Rafael Aguirre Nolasco,30/5/2023 12:02pm
CC-INX-13 MIGRACION TAB 6 ,CARGILL,PROYECTO,,Pausado,,7/8/2021 6:09pm
CC-INX-16 SISTEMA DE CONTROL DE TOLVAS ,CARGILL,PROYECTO,,Pausado,Rodolfo Tiburcio,7/8/2021 6:09pm
CC-INX-26 ELECTRODOS ,,,,Pausado,,7/8/2021 6:09pm
CC-INX-27 RUTA DE FO,CARGILL,,,Pausado,,7/8/2021 6:09pm
CC-INX-42 MANTT. SISTEMA DE TRATAMIENTO DE AGUA SSA ,SSA,PROYECTO,,Pausado,,7/8/2021 6:09pm
CC-INX-48 MATERIALES ELECTRICOS Y MECANICOS PEMEX,PEMEX,SUMINISTRO,,Pausado,,7/8/2021 6:09pm
CC-INX-51 SISTEMA INERTIZADO Y MOVIMIENTO DE TORRETA ,CARGILL,PROYECTO,,Pausado,,7/8/2021 6:09pm
CC-INX-57 INTEGRACION SEÑALES CALDERAS AB MAURI ,AB MAURI,PROYECTO,checked,Pausado,Rodolfo Tiburcio,7/8/2021 6:09pm
CC-INX-67 ARRANCADORES SUAVES  3RW30,CARGILL,SUMINISTRO,,Pausado,,7/8/2021 6:09pm
CC-INX-69 TUBERIA ALIMENTADOR 440VAC (2da PARTE TUBERIA,CARGILL,PROYECTO,checked,Pausado,,7/8/2021 6:22pm
CC-INX-70 SAN ANTONIO- HARINAS,SAN ANTONIO,PROYECTO,,Pausado,,7/8/2021 6:09pm
CC-INX-71 RJJ-CD VICTORIA,RJJ,PROYECTO,,Pausado,,7/8/2021 6:09pm
CC-INX-74 Extensiones Tolva e Inspeccion Almeja,CARGILL,SERVICIO,,Pausado,,7/8/2021 6:09pm
CC-INX-77 MACERADOR DEL SERVIDOR,MASECA,PROYECTO,,Pausado,Rodolfo Tiburcio,7/8/2021 6:09pm
CC-INX-78 RETROLAVADO Y SISTEMA DE TIERRA,SSA,PROYECTO,,Pausado,,7/8/2021 6:09pm
CC-INX-80 TORRETA   ,MASECA,SERVICIO,,Pausado,,7/8/2021 6:09pm
CC-INX-81 BENEFICIOS DE CAFE ,BENEFICIO DE CAFE,PROYECTO,,Pausado,,7/8/2021 6:09pm
CC-INX-87 LUMINARIAS TUBOS LED,RJJ,SUMINISTRO,,Pausado,,12/8/2021 12:38pm
CC-INX-89 Servicios Ecovosa,Sivesa,SERVICIO,,Pausado,,9/8/2021 8:48pm
CC-INX-90 LUMINARIAS CON FOTOCELDA ,RJJ,SUMINISTRO,,Pausado,,12/8/2021 12:42pm
CC-INX-91 VALVULA BOLA WORC ,RJJ,SUMINISTRO,,Pausado,,12/8/2021 12:43pm
"CC-INX-92 CONTACTOR TRIFASICO,",RJJ,SUMINISTRO,,Pausado,,12/8/2021 12:44pm
CC-INX-93 EXTRUCCIONES METALICAS ,EXTRUCCIONES METALICAS ,SUMINISTRO,,Pausado,,18/8/2021 7:49pm
CC-INX-95 SERVICIO DE MANTENIMIENTO A 2 ALMEJAS,CARGILL,SERVICIO,,Pausado,,25/8/2021 4:28pm
CC-INX-96 Cableado de TAB-3 a tablero de control de raceras de vías,CARGILL,PROYECTO,,Pausado,,17/8/2021 4:00pm
"CC-INX-103 COLOCACION DE TUBERIA, ACCESORIOS Y VALVULA PARA EL SISTEMA DE LA BASCULA 1.",CARGILL,PROYECTO,,Pausado,,15/9/2021 9:41am
CC-INX-104 ELABORACION DE PLANOS DE TUBERIA ,CARGILL,PROYECTO,,Pausado,,22/9/2021 10:28am
CC-INX-110 REUBICACION DE EQUIPOS ,SAN ANTONIO,PROYECTO,,Pausado,,30/9/2021 5:59pm
CC-INX-114 Aumento de escalera marina de vías a torre de distribución,CARGILL,PROYECTO,,Pausado,,8/10/2021 11:09am
CC-INX-116 CAMBIO DE REJILLA TIPO IRVIRE Y BARANDAL DE NIVEL 2,CARGILL,PROYECTO,,Pausado,,13/10/2021 6:28pm
CC-INX-119 DIAG. FALLA MAQUINA AMAZADORA,CUETARA,SERVICIO,,Pausado,Rodolfo Tiburcio,26/10/2021 8:33pm
CC-INX-120 SERVICIO DE CONFIGRUACION DE POLYPACK,MASECA,SERVICIO,,Pausado,,26/10/2021 8:45pm
CC-INX-175 CABLEADO Y TUBERIA DE DOS CLIMAS,CARGILL,SERVICIO,,Pausado,,13/4/2022 12:39pm
CC-INX-187 REPELLO SILO 9,CARGILL,SERVICIO,,Pausado,,12/5/2022 11:29am
CC-INX-203 MODULO DE CONTROL DIRECCIONABLE,MASECA,PROYECTO,checked,Pausado,,4/7/2022 9:54am
CC-INX-228 MAQUINA DE GOTEO 2,CHOCOLATERA,PROYECTO,checked,Pausado,,10/9/2022 1:42pm
"CC-INX-234 MANTTO REPARACION SILO 1,2,3 Y 4",CARGILL,PROYECTO,,Pausado,,30/9/2022 8:19pm
CC-INX-273 NUEVA NAVE DE PROCESO,PROCIMART,PROYECTO,checked,Pausado,Rafael Aguirre Nolasco,15/2/2023 9:22am
CC-INX-277 ESTUDIO DE TIERRA FISICA PLANTA ALAMO,CITRU ALAMO,SERVICIO,,Pausado,,23/2/2023 6:41pm
CC-INX-282 INTERCAMBIADORES COBERTURA 1,CHOCOLATERA,PROYECTO,checked,Pausado,,14/3/2023 9:55am
CC-INX-288 RETIRO DE CABLEADO DE FIBRA PUENTE BC-3,CARGILL,PROYECTO,checked,Pausado,Rafael Aguirre Nolasco,30/3/2023 1:38pm
CC-INX-289 RETIRO DE CABLEADO Y CHAROLA PUENTE BC-3,CARGILL,PROYECTO,checked,Pausado,Rafael Aguirre Nolasco,30/3/2023 1:39pm
SNC-INX-01 DP AS MODULO,CITRU ALAMO,NO-CONTRATADO,,Pausado,,3/1/2022 5:27pm
SNC-INX-01 MANTTO. SIMULADOR ENTRADA HOMBRE,CARGILL,NO-CONTRATADO,,Pausado,,3/1/2022 5:15pm
SNC-INX-08 HABILITAR REJILLA IRVING Y CANALES PARA AMPLIAR PASILLO,CARGILL,NO-CONTRATADO,,Pausado,,17/2/2022 5:53pm
SNC-INX-10 ELABORACION Y COLOCACION DE SOPORTERIA Y CHAROLA EN AMCO,,,,Pausado,,17/2/2022 7:13pm
,CARGILL,,,Activo,,8/5/2023 12:43pm
_CC-INX-000 Servicios no contratados,,,,Activo,,7/8/2021 6:22pm
_Interno,,,,Activo,,7/8/2021 6:22pm
CC-INX-330 MANTENIMIENTO  CISTERNA ,CARGILL,PROYECTO,checked,Activo,,30/8/2023 10:43am
CC-INX-00 OFICINA,OFICINA,,,Activo,,7/8/2021 6:09pm
CC-INX-131 DRIVES TORRES DE MUELLE,CARGILL,PROYECTO,checked,Activo,NELSON OBED LARA COLORADO,1/12/2021 9:48am
CC-INX-173 ACTUALIZACION SISTEMA CIMPLICITY,CARGILL,SERVICIO,checked,Activo,Rodolfo Tiburcio,30/3/2022 4:14pm
CC-INX-190 RETROFIT DE FRESADORA,CONALEP,PROYECTO,checked,Activo,Rafael Aguirre Nolasco,16/5/2022 5:26pm
CC-INX-207 MEDICIÓN DE ENERGÍA EN UNIDAD DE SECADO Y EMBALAJE MCC08,AB MAURI,PROYECTO,checked,Activo,NELSON OBED LARA COLORADO,13/7/2022 8:21pm
CC-INX-226 DUMEZ - COTEMAR PLC EMERSON RX3i,DUMEZ COPISA,PROYECTO,checked,Activo,Rafael Aguirre Nolasco,9/9/2022 11:27am
CC-INX-227 MANTT SIST DE TRATAMIENTO DE AGUA SSA,SSA,SERVICIO,checked,Activo,Rafael Aguirre Nolasco,9/9/2022 2:11pm
CC-INX-266 DUMEZ - DEMAR PLC EMERSON RX3i,DUMEZ COPISA,PROYECTO,checked,Activo,Rafael Aguirre Nolasco,3/1/2023 5:35pm
CC-INX-267 CONSTRUCCION DE CASETA PARA BASCULA CAMIONERA,CARGILL,PROYECTO,checked,Activo,presupuestos@inamexa.cim,17/1/2023 3:21pm
CC-INX-279 INSTALACION DE BASCULA SIGMA ,SAN ANTONIO,PROYECTO,checked,Activo,Rafael Aguirre Nolasco,10/3/2023 11:19am
CC-INX-282 VENTANAL ANTIAVES SILO CENTRAL,CARGILL,FABRICACION,checked,Activo,Rafael Aguirre Nolasco,15/3/2023 4:19pm
CC-INX-286 MIGRACION DE LINEAS PAQUETINES PETERS 2,CUETARA,PROYECTO,checked,Activo,Rodolfo Tiburcio,24/3/2023 5:13pm
CC-INX-290 SISTEMA DE BOMBAS DE FLOCULADOR,CITRO PASO LARGO,PROYECTO,checked,Activo,Rafael Aguirre Nolasco,14/5/2023 9:37am
CC-INX-295 ALIMENTACION NUEVA CASETA DESDE SUBESTACION,CARGILL,PROYECTO,checked,Activo,Rafael Aguirre Nolasco,12/4/2023 5:55pm
CC-INX-298 AEI ANEMÓMETRO DE COPA POSTE,CARGILL,SUMINISTRO,checked,Activo,Nohemi Bautista Perez,4/5/2023 1:03pm
CC-INX-299 AEI BANCO DE BATERIAS DE SUBESTACION DE MUELLE,CARGILL,SUMINISTRO,checked,Activo,Rafael Aguirre Nolasco,4/5/2023 1:04pm
CC-INX-303 SUMINISTRO E INSTALACION DE CAMARAS IP,CARGILL,PROYECTO,checked,Activo,Rodolfo Tiburcio,11/5/2023 12:31pm
CC-INX-306 ALIMENTACION DE CASETA NUEVA DE BASCULA DESDE SUBESTACION,CARGILL,PROYECTO,checked,Activo,Rafael Aguirre Nolasco,17/5/2023 2:59pm
CC-INX-307 AEI REELCRAFT CABLE,CARGILL,SUMINISTRO,checked,Activo,Rafael Aguirre Nolasco,24/5/2023 3:50pm
CC-INX-309 FABRICACION Y MTTO DE GUARDAS A DRAGA 07,CARGILL,PROYECTO,checked,Activo,Rafael Aguirre Nolasco,24/5/2023 3:57pm
CC-INX-310 MANTENIMIENTO DE CASETA DE CCM RASERAS SILOS 9 Y 16,CARGILL,SERVICIO,checked,Activo,Rafael Aguirre Nolasco,24/5/2023 4:00pm
CC-INX-312 PUERTAS BATIENTES 2DO BLOQUE,CARGILL,PROYECTO,checked,Activo,Rafael Aguirre Nolasco,22/6/2023 2:00pm
CC-INX-313 MOVIMIENTO DE MEZCLADORA,CHOCOLATERA,PROYECTO,checked,Activo,Rafael Aguirre Nolasco,3/7/2023 7:44pm
CC-INX-314- PUERTA VESTIDORES ,CARGILL,FABRICACION,checked,Activo,Rafael Aguirre Nolasco,12/7/2023 11:51am
CC-INX-315 VARIADOR Y BOMBA DE TEMPERADO,CHOCOLATERA,PROYECTO,checked,Activo,Rafael Aguirre Nolasco,14/7/2023 3:10pm
CC-INX-316 INSTALACION MINISPLIT 24 M BTU SALA BALUARTE,CARGILL,SERVICIO,checked,Activo,Rafael Aguirre Nolasco,15/7/2023 12:20pm
CC-INX-317 RENTA DE PLATAFORMA ARTICULADA,CARGILL,SERVICIO,checked,Activo,Rafael Aguirre Nolasco,15/7/2023 12:36pm
CC-INX-318 AEI SUMINISTRO DE SENSORES TURK,CARGILL,SUMINISTRO,checked,Activo,Rafael Aguirre Nolasco,15/7/2023 2:48pm
CC-INX-319 TANQUE DE LLENADO DE COBERTURA BLANCA,CHOCOLATERA,PROYECTO,checked,Activo,Rafael Aguirre Nolasco,17/7/2023 7:43pm
CC-INX-320 COMPRESOR DE PULPA ASEPTIC,CITRU ALAMO,SUMINISTRO,checked,Activo,Rafael Aguirre Nolasco,19/7/2023 4:15pm
CC-INX-321 DREAMREPORT BASCULA DE DESCARGA Y PANTALLA INFORMACION,CARGILL,SERVICIO,checked,Activo,Rodolfo Tiburcio,25/7/2023 10:07am
CC-INX-322 MANNTO SALA LEAN,CARGILL,SERVICIO,checked,Activo,Rafael Aguirre Nolasco,26/7/2023 11:39am
CC-INX-323 SUMINISTRO DE EQUIPOS AB MAURI,AB MAURI,SUMINISTRO,checked,Activo,Rafael Aguirre Nolasco,28/7/2023 5:13pm
CC-INX-324 ANALISIS DE VIBRACION EN CAMPO,BREDERO SHAW,SERVICIO,checked,Activo,Rafael Aguirre Nolasco,3/8/2023 1:41pm
CC-INX-325 INSTALACION GENERADOR GERTRUDIS 3,SAN ANTONIO,SERVICIO,checked,Activo,Rafael Aguirre Nolasco,16/8/2023 6:38pm
CC-INX-326 INSTALACION GENERADOR CATALINA,SAN ANTONIO,SERVICIO,checked,Activo,Rafael Aguirre Nolasco,16/8/2023 6:41pm
CC-INX-327 INSTALACION GENERADOR CARLOS 3,SAN ANTONIO,SERVICIO,checked,Activo,Rafael Aguirre Nolasco,16/8/2023 6:43pm
CC-INX-328- INSTALACION CLIMA TCE,,SUMINISTRO,checked,Activo,,25/8/2023 4:10pm
CC-INX-329 REMODELACION SALA LEAN ,CARGILL,PROYECTO,checked,Activo,,30/8/2023 10:42am
,CITRU ALAMO,,,,,17/3/2023 1:53pm